<svg width="48" height="48" viewBox="0 0 48 48" fill="none" xmlns="http://www.w3.org/2000/svg">
<rect width="48" height="48" rx="8" fill="white"/>
<path d="M34.8333 23.1875H32.6233C32.2333 19.06 28.94 15.7559 24.8125 15.3767V13.1667C24.8125 12.7225 24.4442 12.3542 24 12.3542C23.5558 12.3542 23.1875 12.7225 23.1875 13.1667V15.3767C19.06 15.7667 15.7558 19.06 15.3767 23.1875H13.1667C12.7225 23.1875 12.3542 23.5559 12.3542 24C12.3542 24.4442 12.7225 24.8125 13.1667 24.8125H15.3767C15.7667 28.94 19.06 32.2442 23.1875 32.6234V34.8334C23.1875 35.2775 23.5558 35.6459 24 35.6459C24.4442 35.6459 24.8125 35.2775 24.8125 34.8334V32.6234C28.94 32.2334 32.2442 28.94 32.6233 24.8125H34.8333C35.2775 24.8125 35.6458 24.4442 35.6458 24C35.6458 23.5559 35.2775 23.1875 34.8333 23.1875ZM24 27.38C22.1367 27.38 20.62 25.8634 20.62 24C20.62 22.1367 22.1367 20.62 24 20.62C25.8633 20.62 27.38 22.1367 27.38 24C27.38 25.8634 25.8633 27.38 24 27.38Z" fill="#0BB4FF"/>
</svg>
