<svg width="215" height="266" viewBox="0 0 215 266" fill="none" xmlns="http://www.w3.org/2000/svg">
<circle cx="153" cy="58" r="4" fill="#F39CC2"/>
<circle cx="208.5" cy="39.5" r="5.5" fill="#CBEAFF"/>
<circle cx="44" cy="63" r="8" fill="#CBEAFF"/>
<circle cx="201" cy="124" r="8" fill="#F39CC2"/>
<circle cx="129" cy="261" r="5" fill="#F39CC2"/>
<circle cx="5" cy="191" r="5" fill="#F39CC2"/>
<circle cx="52" cy="246" r="6" fill="#CBEAFF"/>
<circle cx="209" cy="216" r="6" fill="#CBEAFF"/>
<circle cx="90.5" cy="3.5" r="3.5" fill="#FFB035"/>
<circle cx="22" cy="126" r="4" fill="#FFB035"/>
<path d="M58.794 201H62.434V193.33H68.232V190.444H62.434V185.79H70V182.852H58.794V201ZM72.3211 201H75.9611V186.596H72.3211V201ZM74.1671 184.88C75.4411 184.88 76.4031 183.944 76.4031 182.748C76.4031 181.552 75.4411 180.616 74.1671 180.616C72.8671 180.616 71.9311 181.552 71.9311 182.748C71.9311 183.944 72.8671 184.88 74.1671 184.88ZM89.3854 201H93.0254V192.55C93.0254 188.572 90.6334 186.388 87.2794 186.388C85.4334 186.388 83.8734 187.168 82.9374 188.39V186.596H79.2974V201H82.9374V193.044C82.9374 190.73 84.2114 189.482 86.1874 189.482C88.1114 189.482 89.3854 190.73 89.3854 193.044V201ZM95.2909 193.746C95.2909 198.244 98.2029 201.234 101.869 201.234C104.131 201.234 105.743 200.194 106.601 198.868V201H110.293V181.76H106.601V188.598C105.613 187.246 103.793 186.362 101.895 186.362C98.2029 186.362 95.2909 189.248 95.2909 193.746ZM106.627 193.798C106.627 196.528 104.807 198.036 102.805 198.036C100.855 198.036 99.0089 196.476 99.0089 193.746C99.0089 191.016 100.855 189.56 102.805 189.56C104.807 189.56 106.627 191.068 106.627 193.798ZM119.523 201H123.163V189.196L128.051 201H130.807L135.669 189.196V201H139.309V182.852H135.201L129.429 196.346L123.657 182.852H119.523V201ZM148.836 189.352C150.708 189.352 152.216 190.548 152.268 192.446H145.43C145.716 190.47 147.094 189.352 148.836 189.352ZM155.674 196.476H151.748C151.28 197.438 150.422 198.218 148.862 198.218C147.042 198.218 145.586 197.022 145.404 194.89H155.934C156.012 194.422 156.038 193.954 156.038 193.486C156.038 189.196 153.1 186.362 148.94 186.362C144.676 186.362 141.712 189.248 141.712 193.798C141.712 198.322 144.754 201.234 148.94 201.234C152.502 201.234 154.894 199.128 155.674 196.476Z" fill="#062133"/>
<g clip-path="url(#clip0_1436:1855)">
<rect x="67" y="93" width="80" height="80" rx="8" fill="white"/>
<rect x="67" y="93" width="80" height="80" rx="8" fill="#055993"/>
<mask id="mask0_1436:1855" style="mask-type:alpha" maskUnits="userSpaceOnUse" x="67" y="93" width="80" height="80">
<rect x="67" y="93" width="80" height="80" rx="8" fill="#3C7BA7"/>
</mask>
<g mask="url(#mask0_1436:1855)">
<circle cx="147" cy="114.429" r="52.8571" fill="#062133"/>
<circle opacity="0.55" cx="66.9997" cy="98.7143" r="52.8571" fill="#000A11"/>
<circle opacity="0.75" cx="78.4286" cy="157.286" r="45.7143" fill="#073357"/>
</g>
<path d="M121.211 112C121.531 112.503 121.806 113.189 122.034 114.057C122.309 114.88 122.446 115.749 122.446 116.663C122.446 118.446 122.057 119.726 121.28 120.503C120.549 121.234 119.543 121.6 118.263 121.6H103.863V129.349H118.88C119.246 129.851 119.543 130.514 119.771 131.337C120.046 132.16 120.183 133.029 120.183 133.943C120.183 135.68 119.794 136.937 119.017 137.714C118.286 138.446 117.28 138.811 116 138.811H104V153.28C103.497 153.417 102.697 153.554 101.6 153.691C100.549 153.829 99.4971 153.897 98.4457 153.897C97.3943 153.897 96.4571 153.806 95.6343 153.623C94.8571 153.486 94.1943 153.211 93.6457 152.8C93.0971 152.389 92.6857 151.817 92.4114 151.086C92.1371 150.354 92 149.394 92 148.206V118.377C92 116.411 92.5714 114.857 93.7143 113.714C94.8571 112.571 96.4114 112 98.3771 112H121.211Z" fill="white"/>
</g>
<defs>
<clipPath id="clip0_1436:1855">
<rect x="67" y="93" width="80" height="80" rx="8" fill="white"/>
</clipPath>
</defs>
</svg>
